<?xml version="1.0" encoding="UTF-8" standalone="no"?>
<svg
   xmlns:dc="http://purl.org/dc/elements/1.1/"
   xmlns:cc="http://creativecommons.org/ns#"
   xmlns:rdf="http://www.w3.org/1999/02/22-rdf-syntax-ns#"
   xmlns:svg="http://www.w3.org/2000/svg"
   xmlns="http://www.w3.org/2000/svg"
   xmlns:sodipodi="http://sodipodi.sourceforge.net/DTD/sodipodi-0.dtd"
   xmlns:inkscape="http://www.inkscape.org/namespaces/inkscape"
   version="1.1"
   id="svg2"
   xml:space="preserve"
   width="1930.366"
   height="346.78543"
   viewBox="0 0 1930.366 346.78543"
   sodipodi:docname="dr_ts.svg"
   inkscape:version="1.0.2 (e86c870879, 2021-01-15)"><metadata
     id="metadata8"><rdf:RDF><cc:Work
         rdf:about=""><dc:format>image/svg+xml</dc:format><dc:type
           rdf:resource="http://purl.org/dc/dcmitype/StillImage" /><dc:title></dc:title></cc:Work></rdf:RDF></metadata><defs
     id="defs6"><clipPath
       clipPathUnits="userSpaceOnUse"
       id="clipPath30"><path
         d="M 17.812,0 H 1438.175 V 212.117 H 17.812 Z"
         id="path28" /></clipPath><clipPath
       clipPathUnits="userSpaceOnUse"
       id="clipPath40"><path
         d="M 0,0 H 1439 V 238 H 0 Z"
         id="path38" /></clipPath><clipPath
       clipPathUnits="userSpaceOnUse"
       id="clipPath60"><path
         d="M 17.812,0 H 1438.175 V 212.117 H 17.812 Z"
         id="path58" /></clipPath><clipPath
       clipPathUnits="userSpaceOnUse"
       id="clipPath70"><path
         d="M 0,0 H 1439 V 238 H 0 Z"
         id="path68" /></clipPath><clipPath
       clipPathUnits="userSpaceOnUse"
       id="clipPath90"><path
         d="M 17.812,0 H 1438.175 V 212.117 H 17.812 Z"
         id="path88" /></clipPath><clipPath
       clipPathUnits="userSpaceOnUse"
       id="clipPath100"><path
         d="M 0,0 H 1439 V 238 H 0 Z"
         id="path98" /></clipPath><clipPath
       clipPathUnits="userSpaceOnUse"
       id="clipPath120"><path
         d="M 17.812,0 H 1438.175 V 212.117 H 17.812 Z"
         id="path118" /></clipPath><clipPath
       clipPathUnits="userSpaceOnUse"
       id="clipPath130"><path
         d="M 0,0 H 1439 V 238 H 0 Z"
         id="path128" /></clipPath><clipPath
       clipPathUnits="userSpaceOnUse"
       id="clipPath150"><path
         d="M 17.812,0 H 1438.175 V 212.117 H 17.812 Z"
         id="path148" /></clipPath><clipPath
       clipPathUnits="userSpaceOnUse"
       id="clipPath160"><path
         d="M 0,0 H 1439 V 238 H 0 Z"
         id="path158" /></clipPath><clipPath
       clipPathUnits="userSpaceOnUse"
       id="clipPath180"><path
         d="M 17.812,0 H 1438.175 V 212.117 H 17.812 Z"
         id="path178" /></clipPath><clipPath
       clipPathUnits="userSpaceOnUse"
       id="clipPath190"><path
         d="M 0,0 H 1439 V 238 H 0 Z"
         id="path188" /></clipPath><clipPath
       clipPathUnits="userSpaceOnUse"
       id="clipPath210"><path
         d="M 17.812,0 H 1438.175 V 212.117 H 17.812 Z"
         id="path208" /></clipPath><clipPath
       clipPathUnits="userSpaceOnUse"
       id="clipPath220"><path
         d="M 0,0 H 1439 V 238 H 0 Z"
         id="path218" /></clipPath><clipPath
       clipPathUnits="userSpaceOnUse"
       id="clipPath240"><path
         d="M 17.812,0 H 1438.175 V 212.117 H 17.812 Z"
         id="path238" /></clipPath><clipPath
       clipPathUnits="userSpaceOnUse"
       id="clipPath250"><path
         d="M 0,0 H 1439 V 238 H 0 Z"
         id="path248" /></clipPath><clipPath
       clipPathUnits="userSpaceOnUse"
       id="clipPath264"><path
         d="M 0,0 H 1439 V 238 H 0 Z"
         id="path262" /></clipPath><clipPath
       clipPathUnits="userSpaceOnUse"
       id="clipPath280"><path
         d="M 0,0 H 1439 V 238 H 0 Z"
         id="path278" /></clipPath><clipPath
       clipPathUnits="userSpaceOnUse"
       id="clipPath296"><path
         d="M 0,0 H 1439 V 238 H 0 Z"
         id="path294" /></clipPath><clipPath
       clipPathUnits="userSpaceOnUse"
       id="clipPath312"><path
         d="M 0,0 H 1439 V 238 H 0 Z"
         id="path310" /></clipPath><clipPath
       clipPathUnits="userSpaceOnUse"
       id="clipPath328"><path
         d="M 0,0 H 1439 V 238 H 0 Z"
         id="path326" /></clipPath><clipPath
       clipPathUnits="userSpaceOnUse"
       id="clipPath344"><path
         d="M 0,0 H 1439 V 238 H 0 Z"
         id="path342" /></clipPath><clipPath
       clipPathUnits="userSpaceOnUse"
       id="clipPath362"><path
         d="M 0,0 H 1439 V 238 H 0 Z"
         id="path360" /></clipPath><clipPath
       clipPathUnits="userSpaceOnUse"
       id="clipPath378"><path
         d="M 0,0 H 1439 V 238 H 0 Z"
         id="path376" /></clipPath><clipPath
       clipPathUnits="userSpaceOnUse"
       id="clipPath394"><path
         d="M 0,0 H 1439 V 238 H 0 Z"
         id="path392" /></clipPath></defs><sodipodi:namedview
     pagecolor="#ffffff"
     bordercolor="#666666"
     borderopacity="1"
     objecttolerance="10"
     gridtolerance="10"
     guidetolerance="10"
     inkscape:pageopacity="0"
     inkscape:pageshadow="2"
     inkscape:window-width="2560"
     inkscape:window-height="1440"
     id="namedview4"
     showgrid="false"
     showguides="true"
     inkscape:guide-bbox="true"
     fit-margin-top="0"
     fit-margin-left="0"
     fit-margin-right="0"
     fit-margin-bottom="0"
     inkscape:zoom="0.98088078"
     inkscape:cx="634.29792"
     inkscape:cy="280.49438"
     inkscape:window-x="0"
     inkscape:window-y="0"
     inkscape:window-maximized="1"
     inkscape:current-layer="g10"><sodipodi:guide
       position="953.66687,553.12502"
       orientation="1,0"
       id="guide1294" /></sodipodi:namedview><g
     id="g10"
     inkscape:groupmode="layer"
     inkscape:label="dr_ts"
     transform="matrix(1.3333333,0,0,1.3333333,12.799304,0)"><path
       d="M 17.812,0 H 1438.175 V 212.117 H 17.812 Z"
       style="fill:#eeeeee;fill-opacity:1;fill-rule:nonzero;stroke:none"
       id="path22" /><g
       id="g24"><g
         id="g26"
         clip-path="url(#clipPath30)"><g
           id="g32"><g
             id="g34"><g
               id="g36"
               clip-path="url(#clipPath40)"><g
                 id="g42"><g
                   id="g44"
                   transform="scale(1,-1)"><path
                     d="M 17.812,-212.117 V 0"
                     style="fill:none;stroke:#ffffff;stroke-width:2;stroke-linecap:square;stroke-linejoin:round;stroke-miterlimit:10;stroke-dasharray:none;stroke-opacity:1"
                     id="path46" /></g></g></g></g></g></g></g><g
       id="g54"><g
         id="g56"
         clip-path="url(#clipPath60)"><g
           id="g62"><g
             id="g64"><g
               id="g66"
               clip-path="url(#clipPath70)"><g
                 id="g72"><g
                   id="g74"
                   transform="scale(1,-1)"><path
                     d="M 215.082,-212.117 V 0"
                     style="fill:none;stroke:#ffffff;stroke-width:2;stroke-linecap:square;stroke-linejoin:round;stroke-miterlimit:10;stroke-dasharray:none;stroke-opacity:1"
                     id="path76" /></g></g></g></g></g></g></g><g
       id="g84"><g
         id="g86"
         clip-path="url(#clipPath90)"><g
           id="g92"><g
             id="g94"><g
               id="g96"
               clip-path="url(#clipPath100)"><g
                 id="g102"><g
                   id="g104"
                   transform="scale(1,-1)"><path
                     d="M 412.355,-212.117 V 0"
                     style="fill:none;stroke:#ffffff;stroke-width:2;stroke-linecap:square;stroke-linejoin:round;stroke-miterlimit:10;stroke-dasharray:none;stroke-opacity:1"
                     id="path106" /></g></g></g></g></g></g></g><g
       id="g114"><g
         id="g116"
         clip-path="url(#clipPath120)"><g
           id="g122"><g
             id="g124"><g
               id="g126"
               clip-path="url(#clipPath130)"><g
                 id="g132"><g
                   id="g134"
                   transform="scale(1,-1)"><path
                     d="M 609.629,-212.117 V 0"
                     style="fill:none;stroke:#ffffff;stroke-width:2;stroke-linecap:square;stroke-linejoin:round;stroke-miterlimit:10;stroke-dasharray:none;stroke-opacity:1"
                     id="path136" /></g></g></g></g></g></g></g><g
       id="g144"><g
         id="g146"
         clip-path="url(#clipPath150)"><g
           id="g152"><g
             id="g154"><g
               id="g156"
               clip-path="url(#clipPath160)"><g
                 id="g162"><g
                   id="g164"
                   transform="scale(1,-1)"><path
                     d="M 806.902,-212.117 V 0"
                     style="fill:none;stroke:#ffffff;stroke-width:2;stroke-linecap:square;stroke-linejoin:round;stroke-miterlimit:10;stroke-dasharray:none;stroke-opacity:1"
                     id="path166" /></g></g></g></g></g></g></g><g
       id="g174"><g
         id="g176"
         clip-path="url(#clipPath180)"><g
           id="g182"><g
             id="g184"><g
               id="g186"
               clip-path="url(#clipPath190)"><g
                 id="g192"><g
                   id="g194"
                   transform="scale(1,-1)"><path
                     d="M 1004.176,-212.117 V 0"
                     style="fill:none;stroke:#ffffff;stroke-width:2;stroke-linecap:square;stroke-linejoin:round;stroke-miterlimit:10;stroke-dasharray:none;stroke-opacity:1"
                     id="path196" /></g></g></g></g></g></g></g><g
       id="g204"><g
         id="g206"
         clip-path="url(#clipPath210)"><g
           id="g212"><g
             id="g214"><g
               id="g216"
               clip-path="url(#clipPath220)"><g
                 id="g222"><g
                   id="g224"
                   transform="scale(1,-1)"><path
                     d="M 1201.449,-212.117 V 0"
                     style="fill:none;stroke:#ffffff;stroke-width:2;stroke-linecap:square;stroke-linejoin:round;stroke-miterlimit:10;stroke-dasharray:none;stroke-opacity:1"
                     id="path226" /></g></g></g></g></g></g></g><g
       id="g234"><g
         id="g236"
         clip-path="url(#clipPath240)"><g
           id="g242"><g
             id="g244"><g
               id="g246"
               clip-path="url(#clipPath250)"><g
                 id="g252"><g
                   id="g254"
                   transform="scale(1,-1)"><path
                     d="M 1398.719,-212.117 V 0"
                     style="fill:none;stroke:#ffffff;stroke-width:2;stroke-linecap:square;stroke-linejoin:round;stroke-miterlimit:10;stroke-dasharray:none;stroke-opacity:1"
                     id="path256" /></g></g></g></g></g><g
           id="g258"><g
             id="g260" /><g
             id="g272"><g
               clip-path="url(#clipPath264)"
               id="g270"><g
                 id="g268"><path
                   d="m 168.727,0 h 19.727 v 212.117 h -19.727 z"
                   style="fill:#00ffff;fill-opacity:0.15;fill-rule:nonzero;stroke:none"
                   id="path266" /></g></g></g></g><g
           id="g274"><g
             id="g276" /><g
             id="g288"><g
               clip-path="url(#clipPath280)"
               id="g286"><g
                 id="g284"><path
                   d="m 346.27,0 h 19.727 V 212.117 H 346.27 Z"
                   style="fill:#00ffff;fill-opacity:0.15;fill-rule:nonzero;stroke:none"
                   id="path282" /></g></g></g></g><g
           id="g290"><g
             id="g292" /><g
             id="g304"><g
               clip-path="url(#clipPath296)"
               id="g302"><g
                 id="g300"><path
                   d="m 523.816,0 h 19.727 v 212.117 h -19.727 z"
                   style="fill:#00ffff;fill-opacity:0.15;fill-rule:nonzero;stroke:none"
                   id="path298" /></g></g></g></g><g
           id="g306"><g
             id="g308" /><g
             id="g320"><g
               clip-path="url(#clipPath312)"
               id="g318"><g
                 id="g316"><path
                   d="m 701.359,0 h 19.73 v 212.117 h -19.73 z"
                   style="fill:#00ffff;fill-opacity:0.15;fill-rule:nonzero;stroke:none"
                   id="path314" /></g></g></g></g><g
           id="g322"><g
             id="g324" /><g
             id="g336"><g
               clip-path="url(#clipPath328)"
               id="g334"><g
                 id="g332"><path
                   d="m 878.906,0 h 19.727 v 212.117 h -19.727 z"
                   style="fill:#00ffff;fill-opacity:0.15;fill-rule:nonzero;stroke:none"
                   id="path330" /></g></g></g></g><g
           id="g338"><g
             id="g340" /><g
             id="g352"><g
               clip-path="url(#clipPath344)"
               id="g350"><g
                 id="g348"><path
                   d="m 1056.453,0 h 19.727 v 212.117 h -19.727 z"
                   style="fill:#00ffff;fill-opacity:0.15;fill-rule:nonzero;stroke:none"
                   id="path346" /></g></g></g></g><g
           id="g354"><g
             id="g356"><g
               id="g358"
               clip-path="url(#clipPath362)"><g
                 id="g364"><g
                   id="g366"
                   transform="scale(1,-1)"><path
                     d="m 17.812,-62.715 0.985,-19.57 0.988,-9.481 0.985,5.422 0.988,13.508 0.984,16.121 0.988,9.238 0.985,-5.222 0.988,-17.817 0.985,-13.902 0.988,0.461 0.984,9.555 1.973,28.578 0.988,4.293 0.984,-16.739 0.989,-24.683 0.984,-9.613 0.988,10.972 0.985,18.254 0.988,13.871 0.984,4.227 0.989,-12.094 0.984,-24.348 0.988,-14.636 0.985,9.972 1.972,47.621 0.989,8.907 0.984,-13.649 0.988,-29.426 0.985,-16.82 0.988,4.91 0.984,17.039 0.989,19.266 0.984,10.273 0.988,-6.824 0.985,-21.672 0.988,-18.781 0.984,-3.41 0.989,9.078 0.988,16.172 0.984,13.141 0.989,-4.547 0.984,-22.285 0.988,-17.477 0.985,-1.348 0.988,12.071 1.973,39.379 0.984,5 0.988,-14.969 0.985,-24.899 0.988,-13.648 0.984,6.336 1.973,44.394 0.988,8.043 0.985,-17.496 0.988,-33.269 0.984,-19.129 0.988,5.687 0.985,18.653 0.988,16.382 0.985,8.223 0.988,-1.144 0.984,-14.809 0.988,-21.574 0.985,-7.391 0.988,11.231 0.984,17.617 0.989,15.051 0.984,7.32 0.988,-5.738 0.985,-17.903 0.988,-15.074 0.984,2.762 1.973,42.703 0.988,4.902 0.985,-13.617 0.988,-21.332 0.984,-11.512 0.989,9.973 0.984,24.043 0.988,19.641 0.985,0.121 0.988,-21.946 0.984,-28.082 0.989,-11.925 0.984,7.722 1.973,40.43 0.988,1.965 0.984,-20.2 0.989,-23.996 0.988,-7.578 0.984,10.649 1.973,38.004 0.988,8.711 0.985,-11.305 0.988,-24.527 0.984,-14.977 0.989,3.371 0.984,16.984 0.988,20.735 0.985,12.324 0.988,-4.113 0.984,-20.996 0.988,-26.157 0.985,-10.597 0.988,8.949 0.985,19.676 0.988,16.164 0.984,-1.903 0.988,-20.546 0.985,-23.243 0.988,-10.886 0.985,5.703 0.988,17.262 0.984,20 0.988,11.843 0.985,-5.804 1.972,-41.989 0.989,0.477 0.984,15.113 0.988,18.617 0.985,13 0.988,-4.64 0.984,-22.414 0.989,-18.848 0.984,0.422 0.988,16.148 0.985,20.867 0.988,10.571 0.984,-10.766 0.989,-24.765 0.984,-16.973 0.988,5.898 1.973,40.602 0.984,5.398 0.989,-14.906 0.984,-24.012 0.988,-11.941 0.985,7.629 0.988,20.715 0.984,18.285 0.989,-1.156 0.988,-19.329 0.984,-22.773 0.989,-10.383 0.984,10.067 1.973,41.691 0.988,12.398 0.984,-9.953 0.989,-28.644 0.984,-20.731 0.988,2.192 0.985,15.488 0.988,13.434 0.984,0.867 0.988,-13.742 1.973,-45.563 0.985,-16.969 0.988,-3.89 0.984,13.234 0.988,19.641 0.985,-1.543 0.988,-29.465 0.985,-36.297 0.988,-15.098 0.984,13.723 0.988,26.524 0.985,19.867 0.988,5.113 0.984,-11.242 0.989,-22.231 0.984,-16.617 0.988,3.496 1.973,44.731 0.984,3.078 1.973,-31.61 0.988,-2.152 0.985,13.738 1.972,57.133 0.989,8.996 0.984,-20.332 0.988,-28.133 0.985,-7.949 0.988,12.082 0.984,14.797 0.989,7.574 0.984,-2.3 0.988,-18.098 0.985,-22.203 0.988,-2.379 0.984,20.101 0.989,26.711 0.988,16.661 0.984,-2.723 0.989,-17.902 0.984,-12.469 0.988,2.047 0.985,12.093 0.988,19.411 0.984,16.664 0.989,-3.035 0.984,-24.118 0.988,-16.945 0.985,6.883 1.972,41.578 0.988,16.168 0.985,2.07 0.988,-15.484 0.985,-20.535 0.988,-9.285 0.984,11.566 0.988,25.746 0.985,20.223 0.988,-4.934 1.973,-49.027 0.984,-8.496 0.988,10.492 0.985,21.316 0.988,18.235 0.984,2.535 1.973,-27.981 0.988,-2.953 0.985,16.336 0.988,27.75 0.984,22.149 0.989,6.382 0.984,-15.914 0.988,-26.3 0.985,-14.508 0.988,4.691 0.984,16.067 0.989,20.003 0.984,14.543 0.988,-9.66 0.985,-31.433 0.988,-22.977 0.984,2.899 1.973,36.48 0.988,11.105 0.985,-8.019 0.988,-18.738 0.984,-11.809 0.989,-2.66 0.988,7.578 1.973,35.766 0.984,-0.125 1.973,-45.813 0.988,-7.047 0.984,7.34 0.989,17.922 0.984,20.988 0.988,8.364 0.985,-13.973 0.988,-20.781 0.984,-5.707 0.988,10.871 0.985,15.492 0.988,12.656 0.985,3.922 0.988,-10.613 0.984,-23.145 0.988,-19.066 0.985,-2.227 0.988,13.531 0.985,16.809 0.988,8.18 0.984,-8.664 0.988,-25.395 0.985,-20.195 0.988,4.223 1.973,44.593 0.984,8.844 0.988,-12.953 0.985,-26.66 0.988,-15.192 0.984,2.344 0.989,10.25 0.984,14.801 0.988,9.973 0.985,-8.594 0.988,-21.77 0.984,-16.918 0.989,3.606 1.972,44.652 0.985,7.719 0.988,-14.442 0.984,-21.996 0.989,-8.843 0.984,10.464 1.973,41.477 0.988,2.133 0.984,-20.074 0.989,-23.313 0.988,-6.933 0.984,15.91 0.989,23.187 0.984,8.567 0.988,-12.563 0.985,-25.344 0.988,-21.019 0.984,-3.125 0.989,12.75 0.984,19.265 0.988,9.508 0.985,-11.59 0.988,-22.039 0.984,-11.984 0.988,9.141 0.985,24.824 0.988,20.488 0.985,-2.406 1.972,-44.039 0.988,-4.746 0.985,9.398 0.988,14.301 0.985,10.801 0.988,-4.332 0.984,-25.18 0.988,-28.023 0.985,-9.059 0.988,12.316 0.984,15.817 0.989,6.125 0.984,-3.949 0.988,-17 0.985,-25.204 0.988,-15.531 0.984,6.067 0.989,20.589 0.984,11.981 0.988,-9.586 0.985,-18.473 0.988,-11.09 0.984,0.25 0.989,7.157 1.972,20.422 0.985,4.453 0.988,-8.7 0.984,-19.14 0.989,-12.387 0.984,4.356 0.988,17.035 0.985,23.148 0.988,14.473 0.984,-8.196 0.989,-24.765 0.988,-15.914 0.984,0.242 0.989,7.168 1.972,22.156 0.985,4.149 0.988,-6.77 0.984,-15.562 0.989,-5.762 0.984,16.867 0.988,28.91 0.985,25.563 0.988,11.058 0.984,-9.785 0.988,-22.383 0.985,-13.933 0.988,7.031 1.973,45.859 0.984,11.114 0.988,-6.528 1.973,-51.039 0.985,-9.726 0.988,11.5 0.984,21.859 0.988,17.199 0.985,-0.242 1.972,-40.926 0.989,-1.605 0.984,18.023 0.988,26.461 0.985,18.707 0.988,-4.351 0.984,-26.106 0.989,-19.031 0.984,4.102 0.988,19.386 0.985,24.34 0.988,15.035 0.984,-6.324 0.989,-20.734 0.984,-17.477 0.988,-1.5 0.985,16.594 0.988,24.629 0.984,16.945 0.989,-4.285 1.972,-42.75 0.985,-4.816 0.988,10.988 0.984,20.765 0.989,18.395 0.988,-0.168 0.984,-21.273 0.989,-24.528 0.984,-6.5 0.988,14.086 0.985,17.641 0.988,12.39 0.984,3.735 0.989,-15.84 0.984,-30.332 0.988,-16.656 0.985,8.59 1.972,40.492 0.988,7.984 0.985,-9.535 0.988,-23.731 0.985,-19.011 0.988,-0.449 0.984,14.179 0.988,17.067 0.985,8.921 0.988,-9.437 0.985,-22.914 0.988,-12.039 0.984,7.293 0.988,16.207 0.985,14.156 0.988,5.543 0.984,-9.617 0.989,-22.008 0.984,-11.012 0.988,11.086 1.973,41.043 0.984,5.168 0.989,-15.117 0.984,-22.66 0.988,-9.586 0.985,8.93 1.972,32.644 0.989,5.227 0.984,-15.297 0.988,-29.582 0.985,-17.071 0.988,6.11 0.984,20.605 0.989,24.176 0.984,13.145 0.988,-9.219 0.985,-23.715 0.988,-16.535 0.984,0.437 1.977,27.364 0.984,4.343 0.989,-12.289 0.984,-21.554 0.988,-14.75 0.985,-0.633 0.988,14 0.984,20.605 0.989,12.914 0.984,-10.109 0.988,-25.344 0.985,-12.226 0.988,7.105 1.972,33.504 0.985,7.32 0.988,-11.867 0.985,-19.465 0.988,-7.441 0.984,11.566 0.988,23.844 0.985,16.836 0.988,-7.547 0.985,-26.758 0.988,-23.113 0.984,-6.566 0.988,9.336 0.985,18.488 0.988,13.535 0.984,-6.426 1.973,-49.914 0.988,-1.609 0.985,17.867 0.988,20.332 0.984,11.055 0.989,-5.18 1.972,-33.969 0.985,-4.054 0.988,8.125 0.984,13.933 0.989,12.063 0.984,0.781 0.988,-19.055 0.985,-29.258 0.988,-21.191 0.984,-5.641 0.989,10.782 0.984,17.582 0.988,6.121 0.985,-15.227 0.988,-20.621 0.984,-6.754 0.989,10.078 0.988,18.887 0.984,14.664 0.989,3.66 0.984,-3.554 0.988,-14.629 0.985,-25.34 0.988,-16.895 0.984,1.782 1.973,27.91 0.988,10.547 0.985,0.082 1.972,-30.746 0.988,-2.957 0.985,13.546 0.988,24.59 0.985,16.153 0.988,-6.047 0.984,-16.731 0.988,-8.101 0.985,4.664 0.988,12.039 1.973,26.039 0.984,0.891 0.988,-14.118 0.985,-9.898 0.988,3.23 0.984,15.723 0.989,21.395 0.984,8.605 0.988,-12.023 0.985,-14.164 0.988,1.757 0.984,15.215 0.989,18.52 0.984,11.543 0.988,-6.071 0.985,-19.855 0.988,-15.109 0.984,1.757 0.989,16.039 0.984,20.168 0.988,16.16 0.985,3.016 0.988,-16.644 0.984,-23.766 0.989,-10.438 0.984,9.149 0.988,18.742 0.985,15.652 0.988,0.852 0.984,-14.184 0.989,-16.629 0.988,-4.71 0.984,13.402 0.989,21.047 0.984,11.828 0.988,-8.012 0.985,-26.097 0.988,-21.332 0.984,0.492 0.989,21.246 0.984,25.742 0.988,9.562 0.985,-12.578 0.988,-22.675 0.984,-13.907 0.988,4.52 1.973,35.871 0.985,10.109 0.988,-10.933 0.984,-27.797 0.988,-17.613 0.985,4.671 0.988,17.2 0.985,19.3 0.988,12.575 0.984,-2.75 1.973,-39.403 0.988,-7.285 0.984,7.801 1.973,32.441 0.988,0.305 0.985,-20.25 0.988,-23.504 0.984,-5.961 0.989,9.383 1.972,30.562 0.985,3.704 0.988,-13.004 0.984,-21.543 0.989,-11.039 0.984,4.957 0.988,12.957 1.973,31.968 0.984,0.172 1.973,-36.996 0.988,0.93 1.973,35.363 0.984,7.34 0.989,-7.801 0.988,-19.476 0.984,-14.797 0.989,2.363 1.972,37.442 0.985,-2.899 0.988,-23.226 0.984,-18.778 0.989,-3.683 0.984,10.964 0.988,20.04 0.985,15.218 0.988,-3.363 1.972,-44.57 0.985,-2.137 0.988,14.973 0.985,19.609 0.988,9.508 0.984,-9.352 0.988,-19.097 0.985,-14.395 0.988,-2.18 0.985,12.465 0.988,18.848 0.984,14.605 0.988,-2.277 0.985,-22.863 0.988,-20.133 0.984,-0.246 0.989,14.074 0.984,17.012 0.988,10.051 0.985,-7.305 0.988,-19.461 0.984,-14.824 0.989,-1.34 0.984,12.211 0.988,18.605 0.985,12.032 0.988,-5.977 1.973,-42.234 0.984,-2.563 0.988,13.797 0.985,21.258 0.988,13.312 0.984,-4.351 1.973,-40.305 0.988,-4.922 0.985,10.613 0.988,16.012 0.984,11.34 0.989,-5.02 1.972,-42.328 0.989,-4.922 0.984,7.301 0.988,12.887 0.985,6.754 0.988,-13.172 0.984,-27.184 0.989,-19.332 0.984,-4.289 0.988,10.524 0.985,21.812 0.988,16.031 0.984,-7.386 0.988,-22.356 0.985,-14.91 0.988,-0.539 1.973,18.973 0.984,4.597 0.988,-2.875 0.985,-11.121 0.988,-14.105 0.985,-6.215 0.988,7.922 0.984,18.488 0.988,22.305 0.985,14.695 0.988,-5.371 0.984,-18.301 0.989,-8.574 0.984,8.844 1.973,42.586 0.988,4.808 0.984,-16.468 0.989,-20.379 0.984,-9.778 0.988,4.41 1.973,41.598 0.984,2.758 0.989,-18.34 0.984,-21.023 0.988,-5.004 0.985,12.246 0.988,22.226 0.984,19.508 0.989,2.418 0.984,-19.402 0.988,-26.903 0.985,-12.031 0.988,10.817 1.973,47.422 0.988,2.183 1.973,-41.129 0.984,-2.136 0.988,15.617 0.985,20.504 0.988,13.937 0.984,-3.808 0.989,-20.704 0.984,-17.257 0.988,-0.801 0.985,14.031 0.988,22.582 0.984,18.652 0.988,0.239 0.985,-17.883 0.988,-20.43 0.985,-6.949 0.988,9.516 0.984,16.492 0.988,14.289 0.985,2.004 0.988,-17.633 0.985,-22.922 0.988,-8.047 0.984,7.442 1.973,27.871 0.988,3.457 0.984,-16.36 0.989,-24.355 0.984,-9.711 0.988,7.758 0.985,17.16 0.988,21.168 0.984,12.914 0.989,-9.047 0.984,-19.156 0.988,-8.555 0.985,9.274 0.988,21.777 0.984,16.23 0.989,-2.609 1.972,-38.344 0.985,-3.801 0.988,14.196 0.984,17.375 0.989,3.773 0.984,-14.148 0.988,-21.406 0.985,-12.942 0.988,3.094 0.984,16.711 0.989,20.269 0.988,4.844 0.984,-19.984 0.989,-27.153 0.984,-9.031 0.988,13.324 0.985,22.078 0.988,16.817 0.984,-2.024 1.973,-41.543 0.988,-5.699 0.985,10.528 0.988,19.39 0.984,10.125 0.988,-9.109 0.985,-21.5 0.988,-14.024 0.985,1.739 0.988,13.468 0.984,15.782 0.988,9.269 0.985,-3.929 0.988,-17.551 0.985,-14.836 0.988,0.101 0.984,13.899 0.988,19.23 0.985,12.707 0.988,-5.086 0.984,-19.14 0.989,-16.078 0.984,-1.047 0.988,15.308 0.985,24.457 0.988,15.637 0.984,-9.039 0.989,-24.043 0.984,-17.094 0.988,2.727 0.985,17.027 0.988,14.531 0.984,2.801 0.989,-16.621 0.984,-25.703 0.988,-13 0.985,10.203 0.988,26.641 0.984,23.082 0.989,5.832 0.984,-14.574 0.988,-23.899 0.985,-12.176 0.988,6.215 1.973,35.934 0.988,5.973 0.984,-16.344 0.989,-28.532 0.984,-15.511 0.988,5.582 1.973,37.59 0.984,8.336 0.989,-5.938 0.984,-21.367 0.988,-18.195 0.985,1.269 1.972,27.149 0.988,5.5 0.985,-3.188 0.988,-17.961 0.985,-27.215 0.988,-14.601 0.984,5.949 0.988,15.047 0.985,12.129 0.988,-2.285 1.973,-43.735 0.984,-9.195 0.988,3.484 0.985,10.442 0.988,15.152 0.984,8.762 0.989,-8.91 0.984,-23.301 0.988,-17.176 0.985,0.059 0.988,13.445 0.984,19.746 0.989,14.5 0.984,-1.883 0.988,-22.844 0.985,-27.003 0.988,-6.43 0.984,12.523 0.989,16.977 0.984,13.383 0.988,4.199 0.985,-9.91 0.988,-14.645 0.984,-0.445 0.989,18.836 0.984,25.625 0.988,17.965 0.985,0.937 1.972,-32.32 0.989,1.25 0.988,16.637 0.984,18.726 0.989,5.731 0.984,-14.438 0.988,-19.816 0.985,-4.782 0.988,10.481 1.973,37.055 0.984,7.496 0.988,-11.215 0.985,-21.793 0.988,-14.508 0.984,3.621 0.988,18.313 0.985,24.156 0.988,16.113 0.985,-7.406 0.988,-21.613 0.984,-12.575 0.988,3.028 0.985,12.949 0.988,10.375 0.985,1.434 0.988,-7.086 1.972,-30.18 0.985,-2.215 0.988,15.5 0.984,23.164 0.989,17.246 0.984,-1.129 0.988,-19.972 0.985,-17.203 0.988,-0.743 0.984,14.864 0.989,20.757 0.984,11.715 0.988,-9.109 0.985,-24.203 0.988,-19.715 0.984,2.316 1.973,44.356 0.988,0.082 0.985,-20.324 0.988,-17.114 0.984,-1.949 0.989,10.738 0.984,14.145 0.988,8.535 0.985,-5.625 0.988,-17.672 0.984,-9.597 0.989,4.898 1.972,28.523 0.989,3.45 0.984,-10.59 0.988,-15.039 0.985,-10.457 0.988,-1.211 0.984,8.758 0.989,13.504 0.984,3.304 1.973,-31.465 0.988,0.411 0.984,14.863 0.988,18.305 0.985,12.355 0.988,-1.234 0.985,-20.246 0.988,-25.672 0.984,-10.836 0.988,7.953 0.985,18.625 0.988,14.984 0.985,-1.449 0.988,-15.605 0.984,-13.118 0.988,-3.539 0.985,7.164 0.988,15.469 0.984,13.649 0.989,-2.067 1.972,-37.277 0.985,-2.645 0.988,15.266 0.984,21.129 0.989,8.98 0.984,-13.691 0.988,-23.059 0.985,-8.804 0.988,7.8 0.984,15.782 0.989,18.5 0.984,9.043 0.988,-11.254 0.985,-23.496 0.988,-14.704 0.984,1.204 0.989,11.8 0.984,16.442 0.988,7.668 0.985,-12.532 0.988,-22.82 0.984,-12.59 0.989,4.532 1.972,40.996 0.989,4.82 1.972,-34.383 0.985,-4.078 0.988,8.039 1.973,32.199 0.984,-1.472 1.973,-39.848 0.988,-1.242 1.972,27.547 0.985,8.996 0.988,-0.074 0.985,-15.325 0.988,-19.632 0.984,-8.352 0.988,6.168 1.973,22.262 0.985,5.32 0.988,-7.438 0.984,-18.441 0.988,-13.574 0.985,1.012 0.988,16.214 0.984,19.957 0.989,2.207 0.984,-20.046 0.988,-24.477 0.985,-12.73 0.988,1.812 1.973,18.457 0.984,2.293 0.988,-4.648 0.985,-11.075 0.988,-15.16 0.984,-6.472 0.989,8.043 0.984,14.843 0.988,11.774 0.985,-1.719 0.988,-19.094 0.984,-22.801 0.989,-9.941 0.984,4.899 0.988,14.136 0.985,16.106 0.988,3.367 0.984,-16.195 0.989,-20.473 0.988,-5.516 0.984,14.285 1.973,44.704 0.988,8.746 0.985,-13.305 0.988,-20 0.984,-6.535 0.989,12.34 0.984,22.136 0.988,12 0.985,-7.914 0.988,-18.121 0.984,-14.277 0.988,-1.961 0.985,14.945 0.988,22.75 0.985,10.235 0.988,-6.946 0.984,-11.965 0.988,-5.292 0.985,6.55 0.988,12 0.985,4.047 0.988,-11.984 0.984,-17.199 0.988,-5.524 0.985,7.781 1.972,28.825 0.989,5.226 0.984,-8.246 0.988,-13.027 0.985,-2.719 0.988,13.949 1.973,44.426 0.984,4.367 0.988,-19.195 0.985,-24.59 0.988,-5.969 0.984,11.383 0.989,13.106 0.984,9.96 0.988,-0.847 1.973,-32.43 0.984,-3.156 0.989,10.348 1.972,34.91 0.985,2.711 0.988,-16.911 0.984,-20.765 0.989,-6.762 0.988,10.262 0.984,18.39 0.989,13.262 0.984,-2.793 1.973,-40.265 0.988,-1.477 1.973,39.363 0.984,8.938 0.988,-5.153 1.973,-39.707 0.984,-7.613 0.988,8.727 0.985,16.961 0.988,4.82 0.985,-12.48 0.988,-15.61 0.984,-7.172 0.988,4.571 0.985,14.757 0.988,17.989 0.985,11.152 0.988,-6.676 0.984,-21.058 0.988,-13.965 0.985,4.23 1.972,35.578 0.989,6.227 0.984,-11.219 0.988,-19.906 0.985,-12.625 0.988,1.867 0.984,15.231 0.989,20.382 0.984,11.411 0.988,-8.297 0.985,-23.789 0.988,-19.45 0.984,-0.589 0.989,16.496 0.984,21.675 0.988,13.696 0.985,-5.688 0.988,-22.965 0.984,-18.679 0.989,0.57 0.984,15.805 0.988,19.011 0.985,8.149 0.988,-10.906 0.984,-19.715 0.989,-12.285 0.988,5.836 1.973,42.562 0.984,-2.57 0.988,-22.586 0.985,-19.371 0.988,-2.172 0.984,16.539 0.989,22.879 0.984,7.18 0.988,-14.426 0.985,-21.438 0.988,-13.004 0.984,0.922 0.988,12.278 0.985,14.175 0.988,0.059 1.973,-32.5 0.984,-1.422 1.973,23.84 0.988,7.383 0.985,-5.848 0.988,-19.379 0.984,-14.379 0.988,2.883 0.985,15.754 0.988,17.848 0.984,5.824 0.989,-10.688 0.984,-15.105 0.988,-6.703 0.985,6.746 0.988,10.347 1.973,15.891 0.984,-2.058 1.973,-32.059 0.988,-2.317 0.984,11.083 0.989,18.023 0.984,14.277 0.988,-4.625 0.985,-21.898 0.988,-15.07 0.984,2.105 1.973,21.004 0.988,2.742 0.985,-12.851 0.988,-20.614 0.984,-8.586 0.989,7.387 1.972,28.465 0.989,10.168 0.984,-4.363 0.988,-16.981 0.985,-11.777 0.988,3.027 1.973,29.242 0.984,0.621 0.988,-14.339 0.985,-18.75 0.988,-7.235 0.984,10.492 0.988,17.286 0.985,7.996 0.988,-7.719 0.985,-12.184 0.988,-5.437 0.984,3.812 1.973,23.449 0.988,2.778 0.985,-15.293 0.988,-20.395 0.984,-4.925 0.988,11.671 0.985,18.184 0.988,13.133 0.984,-3.262 0.989,-18.293 0.984,-15.242 0.988,-0.664 0.985,13.09 0.988,16.211 0.984,1.144 0.989,-20.359 0.984,-24.973 0.988,-9.422 0.985,7.133 0.988,15.914 0.984,17.899 0.989,11.879 0.984,-7.879 0.988,-22.516 0.985,-14.285 0.988,6.68 1.973,39.609 0.984,3.996 0.988,-17.125 0.985,-23.648 0.988,-8.727 0.984,8.832 1.977,37.605 0.984,2.743 0.989,-14.848 0.984,-16.996 0.988,-2.945 0.985,13.414 0.988,18.418 0.984,10.07 0.989,-5.418 0.984,-16.301 0.988,-14.027 0.985,1.726 0.988,17.086 0.984,21.164 0.988,13.832 0.985,-2.179 1.973,-30.84 0.988,-6.324 0.984,2.824 0.988,8.973 0.985,4.39 0.988,-12.25 0.985,-21.918 0.988,-10.156 0.984,7.242 1.973,35.524 0.988,2.312 0.984,-15.121 0.989,-20.242 0.984,-6.688 0.988,13.504 0.985,24.039 0.988,17.551 0.984,-3.133 0.989,-17.133 0.984,-14.234 0.988,-2.68 0.985,8.075 0.988,10.226 0.984,7.192 0.989,-0.903 1.972,-28.738 0.985,-0.375 0.988,13.656 0.984,18.067 0.989,12.043 0.984,-4.254 0.988,-21.418 0.985,-15.778 0.988,2.282 0.984,11.511 0.989,9.715 0.988,4.985 0.984,-5.614 1.973,-33.664 0.988,-1.058 0.985,17.566 0.988,20.063 0.984,1.582 0.989,-14.801 0.984,-12.84 0.988,0.301 1.973,28.89 0.984,3.707 0.988,-12.734 0.985,-19.969 0.988,-7.801 0.985,8.489 0.988,15.008 0.984,12.597 0.988,2.758 0.985,-13.164 0.988,-19.227 0.985,-5.937 0.988,13.258 0.984,20.406 0.988,11.148 0.985,-9.332 0.988,-23.621 0.984,-16.996 0.989,1.746 1.972,26.668 0.985,6.899 0.988,-4.2 1.973,-33.031 0.984,-4.965 0.988,8.098 1.973,36.078 0.984,0.961 0.989,-15.976 0.984,-18.149 0.988,-4.387 0.985,12.993 0.988,18.711 0.984,8.742 0.989,-7.141 0.984,-19.715 0.988,-16.125 0.985,-0.402 0.988,13.277 0.984,17.438 0.989,12.383 0.988,0.23 1.973,-30.625 0.984,-3.934 0.988,9.547 1.973,36.106 0.984,-2.25 0.989,-20.918 0.984,-15.692 0.988,2 1.973,28.215 0.984,6.996 0.988,-8.535 0.985,-23.594 0.988,-19.152 0.985,-0.129 0.988,16.024 0.984,20.855 0.988,12.918 0.985,-6.887 0.988,-21.382 0.985,-17.418"
                     style="fill:none;stroke:#1f77b4;stroke-width:4;stroke-linecap:square;stroke-linejoin:round;stroke-miterlimit:10;stroke-dasharray:none;stroke-opacity:1"
                     id="path368" /></g></g></g></g></g><g
           id="g370"><g
             id="g372"><g
               id="g374"
               clip-path="url(#clipPath378)"><g
                 id="g380"><g
                   id="g382"
                   transform="scale(1,-1)"><path
                     d="m 17.812,-85.395 3.946,1.012 4.93,1.024 5.917,0.972 8.879,1.164 28.606,3.371 24.656,2.747 19.731,1.968 18.738,1.641 17.754,1.328 16.769,1.051 0.989,-0.219 0.984,-1.469 0.988,-2.41 0.985,-3.113 1.972,-7.715 1.973,-8.949 8.879,-42.196 1.972,-8.234 0.985,-3.867 0.988,-3.414 0.985,-1.988 0.988,-0.868 0.984,0.016 0.988,0.731 0.985,1.312 0.988,1.793 0.984,2.176 1.973,5.207 1.973,5.953 8.879,28.031 2.957,8.09 1.972,4.824 1.973,4.356 1.973,3.882 1.972,3.422 1.977,2.989 1.973,2.586 1.972,2.211 1.973,1.871 1.973,1.574 1.972,1.308 1.973,1.075 1.972,0.879 2.958,1.007 2.96,0.719 2.958,0.5 3.945,0.426 4.933,0.305 7.891,0.226 19.727,0.258 38.468,0.289 26.633,0.098 0.985,-0.274 0.988,-1.523 0.984,-2.461 0.988,-3.168 1.973,-7.817 1.973,-9.046 8.875,-42.614 1.972,-8.324 1.973,-7.363 0.988,-2.031 0.985,-0.911 0.988,-0.023 0.984,0.691 0.989,1.274 0.984,1.75 0.988,2.14 1.973,5.133 1.973,5.879 8.879,27.727 2.957,7.996 1.972,4.769 1.973,4.293 1.973,3.828 1.972,3.368 1.973,2.937 1.973,2.527 1.972,2.161 1.973,1.824 1.973,1.527 1.972,1.262 1.973,1.031 1.972,0.832 2.961,0.946 2.957,0.656 2.961,0.441 3.946,0.356 4.929,0.214 8.879,0.106 39.453,0.012 44.387,-0.032 0.988,-0.277 0.985,-1.527 0.988,-2.469 0.984,-3.172 1.973,-7.824 1.973,-9.059 8.879,-42.64 1.972,-8.328 1.973,-7.372 0.984,-2.031 0.989,-0.91 0.988,-0.027 0.984,0.691 0.989,1.274 0.984,1.75 0.988,2.136 1.973,5.133 1.973,5.879 8.875,27.719 2.96,7.996 1.973,4.769 1.973,4.293 1.972,3.828 1.973,3.368 1.973,2.937 1.972,2.527 1.973,2.161 1.973,1.824 1.972,1.527 1.973,1.262 1.973,1.031 1.972,0.832 2.957,0.946 2.961,0.656 2.957,0.441 3.95,0.356 4.929,0.214 8.879,0.106 39.453,0.012 44.387,-0.032 0.984,-0.277 0.989,-1.527 0.984,-2.469 0.988,-3.172 1.973,-7.824 1.973,-9.059 8.879,-42.64 1.972,-8.328 1.973,-7.372 0.984,-2.031 0.988,-0.91 0.985,-0.027 0.988,0.691 0.985,1.274 0.988,1.75 0.984,2.136 1.973,5.133 1.973,5.879 8.878,27.719 2.957,7.996 1.973,4.769 1.973,4.293 1.972,3.828 1.973,3.368 1.973,2.937 1.972,2.527 1.973,2.161 1.973,1.824 1.972,1.527 1.977,1.262 1.973,1.031 1.972,0.832 2.957,0.946 2.961,0.656 2.957,0.441 3.946,0.356 4.933,0.214 8.875,0.106 39.457,0.012 44.387,-0.032 0.984,-0.277 0.989,-1.527 0.984,-2.469 0.988,-3.172 1.973,-7.824 1.972,-9.059 8.876,-42.64 1.972,-8.328 1.973,-7.372 0.988,-2.031 0.984,-0.91 0.989,-0.027 0.984,0.691 0.988,1.274 0.985,1.75 0.988,2.132 1.973,5.133 1.972,5.875 8.875,27.699 2.961,7.985 1.973,4.758 1.973,4.289 1.972,3.816 1.973,3.356 1.973,2.925 1.972,2.524 1.973,2.148 1.973,1.813 1.972,1.515 1.973,1.254 1.973,1.02 1.972,0.824 2.961,0.93 2.957,0.64 2.961,0.422 3.945,0.332 4.93,0.188 7.891,0.05 21.703,-0.183 31.562,-0.453 25.645,-0.582 5.918,-0.176 0.988,-0.305 0.985,-1.558 0.988,-2.496 0.984,-3.2 1.973,-7.882 1.972,-9.118 8.879,-42.925 1.973,-8.395 1.973,-7.437 0.984,-2.067 0.988,-0.945 0.985,-0.059 0.988,0.653 0.984,1.238 0.989,1.715 0.984,2.097 1.973,5.059 1.972,5.801 8.879,27.347 2.961,7.864 1.973,4.675 1.972,4.2 1.973,3.73 1.973,3.274 1.972,2.835 1.973,2.434 1.973,2.063 1.972,1.722 1.973,1.422 1.973,1.16 1.972,0.926 1.973,0.731 2.957,0.785 2.961,0.496 2.957,0.277 3.945,0.137 4.934,-0.067 7.891,-0.355 21.699,-1.301 62.14,-3.734 22.688,-1.16 23.672,-0.977 24.66,-0.797 24.66,-0.574 26.629,-0.398 30.578,-0.231 20.715,0.024 31.563,0.406"
                     style="fill:none;stroke:#ff7f0e;stroke-width:5;stroke-linecap:square;stroke-linejoin:round;stroke-miterlimit:10;stroke-dasharray:none;stroke-opacity:1"
                     id="path384" /></g></g></g></g></g><g
           id="g386"><g
             id="g388"><g
               id="g390"
               clip-path="url(#clipPath394)"><g
                 id="g396"><g
                   id="g398"
                   transform="scale(1,-1)"><path
                     d="m 17.812,-81.113 65.098,1.57 40.442,0.801 35.507,0.488 9.868,0.039 0.984,-0.301 0.988,-0.496 1.973,-1.383 1.973,-1.726 3.945,-3.883 4.93,-4.797 2.96,-2.574 1.973,-1.492 0.985,-0.41 0.988,-0.18 h 0.984 l 0.988,0.148 1.973,0.625 1.973,0.946 2.957,1.758 9.863,6.25 2.961,1.57 2.957,1.355 2.961,1.141 2.961,0.934 2.957,0.746 3.945,0.746 3.946,0.515 4.933,0.407 5.918,0.246 8.875,0.125 20.715,-0.028 72.992,-0.347 0.985,-0.043 0.988,-0.192 1.972,-0.703 1.973,-0.969 3.945,-2.316 5.918,-3.543 3.946,-2.062 0.984,-0.43 0.988,-0.254 1.973,-0.129 1.973,0.231 1.972,0.464 2.957,0.965 12.825,4.668 3.945,1.086 3.945,0.856 3.946,0.64 4.933,0.555 5.918,0.383 6.902,0.199 10.852,0.051 34.523,-0.215 61.153,-0.484 2.961,-0.411 4.929,-0.976 7.891,-1.59 2.961,-0.492 1.973,-0.137 2.961,0.063 3.945,0.347 18.738,2.055 6.906,0.394 7.891,0.227 10.848,0.078 23.675,-0.117 81.868,-0.477 2.957,0.352 4.933,0.879 8.879,1.594 2.957,0.355 2.961,-0.008 3.945,-0.328 6.903,-0.891 8.879,-1.078 6.902,-0.601 7.891,-0.43 9.867,-0.277 16.766,-0.192 92.718,-0.589 0.989,0.179 1.972,0.672 1.973,0.934 3.945,2.242 5.918,3.43 3.945,1.988 0.985,0.414 0.988,0.242 1.973,0.102 1.972,-0.254 1.973,-0.481 2.957,-0.988 13.809,-5.07 3.949,-1.067 3.945,-0.836 3.946,-0.636 4.929,-0.559 5.918,-0.41 7.891,-0.274 12.824,-0.156 44.387,-0.172 45.371,-0.027 0.988,0.059 0.985,0.308 0.988,0.5 1.972,1.399 1.973,1.73 3.945,3.895 4.93,4.812 2.961,2.586 1.973,1.5 0.984,0.414 0.988,0.191 0.985,0.008 0.988,-0.136 1.973,-0.606 1.972,-0.918 2.957,-1.719 9.868,-6.121 2.957,-1.535 2.96,-1.32 2.958,-1.106 2.96,-0.902 2.958,-0.715 3.945,-0.711 3.945,-0.48 4.934,-0.36 5.918,-0.199 8.875,-0.047 20.715,0.188 129.214,1.332 55.235,0.258 62.14,0.066 30.579,-0.082"
                     style="fill:none;stroke:#2ca02c;stroke-width:5;stroke-linecap:square;stroke-linejoin:round;stroke-miterlimit:10;stroke-dasharray:none;stroke-opacity:1"
                     id="path400" /></g></g></g></g></g></g></g><text
       xml:space="preserve"
       style="font-style:normal;font-weight:normal;font-size:16px;line-height:1.25;font-family:sans-serif;fill:#555555;fill-opacity:1;stroke:none;stroke-width:0.75"
       x="214.53889"
       y="230.22905"
       id="text1227"><tspan
         sodipodi:role="line"
         id="tspan1225"
         x="214.53889"
         y="230.22905"
         style="font-style:normal;font-variant:normal;font-weight:normal;font-stretch:normal;font-size:16px;font-family:'DejaVu Sans';-inkscape-font-specification:'DejaVu Sans';text-align:center;text-anchor:middle;fill:#555555;fill-opacity:1;stroke-width:0.75">200</tspan></text><text
       xml:space="preserve"
       style="font-style:normal;font-weight:normal;font-size:16px;line-height:1.25;font-family:sans-serif;text-align:center;text-anchor:middle;fill:#555555;fill-opacity:1;stroke:none;stroke-width:0.75"
       x="17.152664"
       y="230.22905"
       id="text1255"><tspan
         sodipodi:role="line"
         id="tspan1253"
         x="17.152664"
         y="230.22905"
         style="font-style:normal;font-variant:normal;font-weight:normal;font-stretch:normal;font-size:16px;font-family:'DejaVu Sans';-inkscape-font-specification:'DejaVu Sans';text-align:center;text-anchor:middle;fill:#555555;fill-opacity:1;stroke-width:0.75">0</tspan></text><text
       xml:space="preserve"
       style="font-style:normal;font-weight:normal;font-size:16px;line-height:1.25;font-family:sans-serif;fill:#555555;fill-opacity:1;stroke:none;stroke-width:0.75"
       x="412.53891"
       y="230.22905"
       id="text1259"><tspan
         sodipodi:role="line"
         id="tspan1257"
         x="412.53891"
         y="230.22905"
         style="font-style:normal;font-variant:normal;font-weight:normal;font-stretch:normal;font-size:16px;font-family:'DejaVu Sans';-inkscape-font-specification:'DejaVu Sans';text-align:center;text-anchor:middle;fill:#555555;fill-opacity:1;stroke-width:0.75">400</tspan></text><text
       xml:space="preserve"
       style="font-style:normal;font-weight:normal;font-size:16px;line-height:1.25;font-family:sans-serif;fill:#555555;fill-opacity:1;stroke:none;stroke-width:0.75"
       x="609.03894"
       y="230.22905"
       id="text1263"><tspan
         sodipodi:role="line"
         id="tspan1261"
         x="609.03894"
         y="230.22905"
         style="font-style:normal;font-variant:normal;font-weight:normal;font-stretch:normal;font-size:16px;font-family:'DejaVu Sans';-inkscape-font-specification:'DejaVu Sans';text-align:center;text-anchor:middle;fill:#555555;fill-opacity:1;stroke-width:0.75">600</tspan></text><text
       xml:space="preserve"
       style="font-style:normal;font-weight:normal;font-size:16px;line-height:1.25;font-family:sans-serif;fill:#555555;fill-opacity:1;stroke:none;stroke-width:0.75"
       x="807.03894"
       y="230.22905"
       id="text1267"><tspan
         sodipodi:role="line"
         id="tspan1265"
         x="807.03894"
         y="230.22905"
         style="font-style:normal;font-variant:normal;font-weight:normal;font-stretch:normal;font-size:16px;font-family:'DejaVu Sans';-inkscape-font-specification:'DejaVu Sans';text-align:center;text-anchor:middle;fill:#555555;fill-opacity:1;stroke-width:0.75">800</tspan></text><text
       xml:space="preserve"
       style="font-style:normal;font-weight:normal;font-size:16px;line-height:1.25;font-family:sans-serif;fill:#555555;fill-opacity:1;stroke:none;stroke-width:0.75"
       x="1003.5389"
       y="230.22905"
       id="text1271"><tspan
         sodipodi:role="line"
         id="tspan1269"
         x="1003.5389"
         y="230.22905"
         style="font-style:normal;font-variant:normal;font-weight:normal;font-stretch:normal;font-size:16px;font-family:'DejaVu Sans';-inkscape-font-specification:'DejaVu Sans';text-align:center;text-anchor:middle;fill:#555555;fill-opacity:1;stroke-width:0.75">1000</tspan></text><text
       xml:space="preserve"
       style="font-style:normal;font-weight:normal;font-size:16px;line-height:1.25;font-family:sans-serif;fill:#555555;fill-opacity:1;stroke:none;stroke-width:0.75"
       x="1201.5389"
       y="230.22905"
       id="text1275"><tspan
         sodipodi:role="line"
         id="tspan1273"
         x="1201.5389"
         y="230.22905"
         style="font-style:normal;font-variant:normal;font-weight:normal;font-stretch:normal;font-size:16px;font-family:'DejaVu Sans';-inkscape-font-specification:'DejaVu Sans';text-align:center;text-anchor:middle;fill:#555555;fill-opacity:1;stroke-width:0.75">1200</tspan></text><text
       xml:space="preserve"
       style="font-style:normal;font-weight:normal;font-size:16px;line-height:1.25;font-family:sans-serif;fill:#555555;fill-opacity:1;stroke:none;stroke-width:0.75"
       x="1396.5389"
       y="230.22905"
       id="text1279"><tspan
         sodipodi:role="line"
         id="tspan1277"
         x="1396.5389"
         y="230.22905"
         style="font-style:normal;font-variant:normal;font-weight:normal;font-stretch:normal;font-size:16px;font-family:'DejaVu Sans';-inkscape-font-specification:'DejaVu Sans';text-align:center;text-anchor:middle;fill:#555555;fill-opacity:1;stroke-width:0.75">1400</tspan></text><text
       xml:space="preserve"
       style="font-style:normal;font-weight:normal;font-size:20px;line-height:1.25;font-family:sans-serif;fill:#555555;fill-opacity:1;stroke:none;stroke-width:0.75"
       x="-113.16403"
       y="5.5958343"
       id="text1288"
       transform="rotate(-90)"><tspan
         sodipodi:role="line"
         id="tspan1286"
         x="-113.16403"
         y="5.5958343"
         style="font-style:normal;font-variant:normal;font-weight:normal;font-stretch:normal;font-size:20px;font-family:'DejaVu Sans';-inkscape-font-specification:'DejaVu Sans';text-align:center;text-anchor:middle;fill:#555555;fill-opacity:1;stroke-width:0.75">CBV [A.U.]</tspan></text><text
       xml:space="preserve"
       style="font-style:normal;font-weight:normal;font-size:21px;line-height:1.25;font-family:sans-serif;fill:#555555;fill-opacity:1;stroke:none;stroke-width:0.75"
       x="705.54968"
       y="257.32053"
       id="text1292"><tspan
         sodipodi:role="line"
         id="tspan1290"
         x="705.54968"
         y="257.32053"
         style="font-style:normal;font-variant:normal;font-weight:normal;font-stretch:normal;font-size:21px;font-family:'DejaVu Sans';-inkscape-font-specification:'DejaVu Sans';text-align:center;text-anchor:middle;fill:#555555;fill-opacity:1;stroke-width:0.75">Time [s]</tspan></text></g></svg>
